{"data":[{"id":136452,"name":"YBW Forums - no lounge subforums","category":"site","raw_subcategory":"ybw","subcategory":"ybw","style_tags":[],"description":"Suppresses subforums in the Lounge.\r\nDaveRo, Version 2 14-12-2019 \r\nUpdated for Xenforo","user":{"id":60276,"name":"DaveRo","email":"redacted","paypal_email":null,"homepage":null,"about":null,"license":"ccby"},"admin_delete_reason_id":null,"updated":"2019-12-15T22:29:20.000Z","weekly_install_count":0,"total_install_count":36,"rating":null,"screenshot_url":"https://userstyles.org/style_screenshots/136452_after.png?r=1586505861","url":"/styles/136452/ybw-forums-no-lounge-subforums","discussionsCount":0,"commentsCount":0,"css":"@-moz-document url-prefix(https://forums.ybw.com/index.php?forums/the-lounge.51/)\r\n{\r\n/* 14-12-2019 */\r\n/* Remove sub-forums */\r\ndiv.node--depth2 {display: none !important}\r\n/* Userstyle reminder */\r\nh1.p-title-value::after {content:\"Userstyle: No sub-forums\"  !important;\r\n                            color : grey !important ;\r\n                            font-size: 12px !important ;\r\n                            position: relative  !important;\r\n                            margin-left: 20px  !important;\r\n                            }\r\n}"},{"id":94974,"name":"Habrahabr (habr.com) minimalizer","category":"site","raw_subcategory":"habr","subcategory":"habr","style_tags":[],"description":"Habrahabr style. Remove top bar, footer and right column. Also increase width of content for better experience.\r\nWorks better for narrow windows too.","user":{"id":186088,"name":"gudvinr","email":"redacted","paypal_email":null,"homepage":null,"about":null,"license":"ccbync"},"admin_delete_reason_id":null,"updated":"2019-12-15T21:31:53.000Z","weekly_install_count":1,"total_install_count":1017,"rating":null,"screenshot_url":"https://userstyles.org/auto_style_screenshots/94974-after.png?r=1597392577","url":"/styles/94974/habrahabr-habr-com-minimalizer","discussionsCount":1,"commentsCount":0,"css":"@-moz-document domain(\"habr.com\"), regexp(\"https?:\\\\/\\\\/webcache\\\\.googleusercontent\\\\.com\\\\/.*cache.*habr\\\\.com.*\") {\r\ndiv#TMpanel,\r\ndiv.sidebar,\r\ndiv.default-block.default-block_content,\r\ndiv.layout__row_footer-links,\r\ndiv.column-wrapper.column-wrapper_bottom.column-wrapper_bordered,\r\ndiv.html_banner_wrap,\r\ndiv.promo-block {\r\n    display: none!important;\r\n}\r\n\r\ndiv.layout {\r\n    padding-bottom: 32px;\r\n}\r\n\r\n@media screen and (max-width: 1200px) {\r\n    body.nl .layout__base,\r\n    body.nl .layout__navbar .main-navbar {\r\n\t\tmin-width: 512px!important;\r\n\t}\r\n}\r\n\r\nbody.nl .layout__base,\r\nbody.nl .layout__navbar .main-navbar {\r\n    max-width: 1280px!important;\r\n}\r\n\r\nbody.nl .layout__base {\r\n    padding-bottom: 40px!important;\r\n}\r\n\r\ndiv.content_left {\r\n    padding-right: 0!important;\r\n}\r\n}\r\n\r\n@-moz-document regexp(\"https?:\\\\/\\\\/webcache\\\\.googleusercontent\\\\.com\\\\/.*cache.*habr\\\\.com.*\") {\r\n#google-cache-hdr {\r\n    /*display: none!important;*/\r\n    padding: 4px 28px!important;\r\n    font-size: 8px!important;\r\n    line-height: 8px!important;\r\n    opacity: 0.1!important;\r\n}\r\n\r\n#google-cache-hdr:hover {\r\n    opacity: 0.9!important;\r\n}\r\n}"},{"id":178313,"name":"Jacobin - Dark","category":"site","raw_subcategory":"jacobinmag","subcategory":"jacobinmag","style_tags":[],"description":"A darker theme for the Jacobin website.","user":{"id":659947,"name":"Bisquick","email":"redacted","paypal_email":null,"homepage":null,"about":null,"license":"publicdomain"},"admin_delete_reason_id":null,"updated":"2019-12-15T21:28:48.000Z","weekly_install_count":1,"total_install_count":5,"rating":null,"screenshot_url":"https://userstyles.org/style_screenshots/178313_after.jpeg?r=1597651508","url":"/styles/178313/jacobin-dark","discussionsCount":0,"commentsCount":0,"css":"/*------------------------------------\r\n-------------- CREDITs ---------\r\n---------------------------------------\r\n - JacobinMag.Com - \r\n - Dark Theme -\r\n - 12-15-19 - \r\n - By Bisquick -\r\n--------------------------------------*/\r\n\r\n@-moz-document domain(\"jacobinmag.com\") {\r\n\t#si-hr-mu {\r\n\t\tbackground-color: #5c2f2f;\r\n\t}\r\n\r\n\t.si-ar {\r\n\t\tbackground-color: #5c2f2f;\r\n\t}\r\n\r\n\t.si-hr-ln {\r\n\t\tbackground-color: #5c2f2f;\r\n\t}\r\n\r\n\t.si-hr-mu {\r\n\t\tbackground-color: #5c2f2f;\r\n\t}\r\n\r\n\ta.po-sr-ed__link {\r\n\t\tfont-family: Lato;\r\n\t}\r\n\r\n\tarticle.hm-xj-mn__article {\r\n\t\tcolor: #ffffff;\r\n\t}\r\n\r\n\tarticle.po__article {\r\n\t\tbackground-color: #260b0b;\r\n\t}\r\n\r\n\taside.hm-cp {\r\n\t\tbackground-color: #5c2f2f;\r\n\t}\r\n\r\n\taside.hm-sd-ty.hm-sd-b-ty {\r\n\t\tcolor: #ffffff;\r\n\t}\r\n\r\n\taside.po-cn__antescript.po-wp__antescript p {\r\n\t\tpadding-top: 15px;\r\n\t}\r\n\r\n\taside.po-sr-ed.po-sr--c.po-sr-ed--c.prt-x {\r\n\t\tbackground-color: #663737;\r\n\t\tfont-family: Roboto;\r\n\t\tpadding-right: 15px;\r\n\t\tpadding-top: 15px;\r\n\t}\r\n\r\n\taside.po-sr-sb.po-sr--b.prt-x {\r\n\t\tbackground-color: #593131;\r\n\t\tpadding-bottom: 15px;\r\n\t\tpadding-left: 15px;\r\n\t\tpadding-top: 15px;\r\n\t}\r\n\r\n\tdiv.hm-dg__main.hm-sd-py__main.hm-sd-a-py__main {\r\n\t\tcolor: #ffffff;\r\n\t}\r\n\r\n\tdiv.hm-sd-b__container {\r\n\t\tcolor: #ffffff;\r\n\t}\r\n\r\n\tdiv.hm-sd-sy.hm-sd-a-sy {\r\n\t\tcolor: #ffffff;\r\n\t}\r\n\r\n\tdiv.hm-sd-sy.hm-sd-c-sy {\r\n\t\tcolor: #ffffff;\r\n\t}\r\n\r\n\tdiv.hm-sm__sharing {\r\n\t\tbackground-color: #5c2f2f;\r\n\t}\r\n\r\n\tdiv.po-ca__container {\r\n\t\tcolor: #ffffff;\r\n\t}\r\n\r\n\tdiv.po-cn.wp.po-wp {\r\n\t\tcolor: #ffffff;\r\n\t}\r\n\r\n\tdiv.po__container {\r\n\t\tbackground-color: #471313;\r\n\t\tmargin-top: -45px;\r\n\t}\r\n\r\n\tfigcaption.po-hr-im__caption {\r\n\t\tborder-color: #ffffff;\r\n\t\tcolor: #ffffff;\r\n\t}\r\n\r\n\tfooter.po-ca.prt-x {\r\n\t\tcolor: #ffffff;\r\n\t}\r\n\r\n\tfooter.po-fr {\r\n\t\tcolor: #ffffff;\r\n\t}\r\n\r\n\tfooter.po-hr-fl.prt-x {\r\n\t\tpadding-left: 15px;\r\n\t}\r\n\r\n\tfooter.si-fr.prt-x {\r\n\t\tbackground-color: #1c1010;\r\n\t}\r\n\r\n\th1.po-hr-cn__title {\r\n\t\tcolor: #ffffff;\r\n\t}\r\n\r\n\theader.hm-xj-hr {\r\n\t\tcolor: #ffffff;\r\n\t}\r\n\r\n\theader.po-hr.prt-y {\r\n\t\tbackground-color: #4d1414;\r\n\t\tborder-color: #ffffff;\r\n\t\tcolor: #ffffff;\r\n\t}\r\n\r\n\theader.si-hr.prt-x {\r\n\t\tbackground-color: #522525;\r\n\t}\r\n\r\n\thtml body {\r\n\t\tbackground-color: #452b2b;\r\n\t}\r\n\r\n\tmain.po {\r\n\t\tbackground-color: #4d2727;\r\n\t}\r\n\r\n\tp.po-hr-im__description {\r\n\t\tmargin-bottom: 25px;\r\n\t}\r\n\r\n\tsection.bn-at.prt-x {\r\n\t\tbackground-color: #522525;\r\n\t}\r\n\r\n\tsection.hm-sb {\r\n\t\tbackground-color: #821d1d;\r\n\t}\r\n\r\n\tsection.hm-sd.hm-sd-a {\r\n\t\tcolor: #ffffff;\r\n\t}\r\n\r\n\tsection.hm-sd.hm-sd-c {\r\n\t\tcolor: #ffffff;\r\n\t}\r\n\r\n\tsection.hm-xc {\r\n\t\tbackground-color: #5c2f2f;\r\n\t}\r\n\r\n\tsection.po-cn__intro.po-wp__intro p {\r\n\t\tcolor: #ffffff;\r\n\t}\r\n\r\n\tsection.po-hr-cn.prt-y {\r\n\t\tcolor: #ffffff;\r\n\t\tpadding-bottom: 175px;\r\n\t\tpadding-left: 25px;\r\n\t}\r\n\r\n\tsi-hr-mu {\r\n\t\tbackground-color: #5c2f2f;\r\n\t}\r\n\r\n\tsvg.po-hr-fl__icon {\r\n\t\tcolor: #ffffff;\r\n\t\tfill: #522525;\r\n\t}\r\n\r\n\ttime.po-hr-fl__date {\r\n\t\tcolor: #ffffff;\r\n\t}\r\n\r\n\tul.po-hr-fl__taxonomies.po-hr-fl__taxonomies--category {\r\n\t\tcolor: #ffffff;\r\n\t}\r\n\r\n\tul.po-hr-fl__taxonomies.po-hr-fl__taxonomies--location {\r\n\t\tcolor: #ffffff;\r\n\t}\r\n}\r\n"},{"id":178310,"name":"When by Quadro","category":"android","raw_subcategory":"1","subcategory":"weather","style_tags":["weather","widget"],"description":"widget weather","user":{"id":873653,"name":"Maks Fabian","email":"redacted","paypal_email":null,"homepage":null,"about":null,"license":null},"admin_delete_reason_id":null,"updated":"2019-12-15T20:20:39.000Z","weekly_install_count":0,"total_install_count":10,"rating":null,"screenshot_url":"https://userstyles.org/style_screenshots/178310_after.png?r=1580025672","url":"/styles/178310/when-by-quadro","discussionsCount":0,"commentsCount":0,"css":"{\"category\":\"widget\",\"subcategory\":\"weather\",\"name\":\"When by Quadro\",\"tags\":\"widget,weather\",\"license\":\"default\",\"visualEditorBackground\":\"black\",\"ivBackground\":{\"type\":\"TRANSPARENT\",\"name\":\"No Image (transparent)\",\"url\":null,\"color\":\"rgba(230,59,15,1)\",\"opacity_image\":1},\"parametersToShow\":{\"ivCurrentWeather\":true,\"tvTemperature\":true,\"tvWeatherDescription\":true,\"tvLocation\":true,\"tvHumidity\":true,\"tvWind\":true,\"tvSunrise\":true,\"tvSunset\":true},\"ivCurrentWeather\":{\"justifyContent\":\"center\"},\"tvTemperature\":{\"fontSize\":\"40px\",\"fontWeight\":\"normal\",\"justifyContent\":\"center\",\"color\":\"rgba(255,255,255,1)\",\"fontStyle\":\"normal\",\"textDecoration\":\"unset\",\"fontFamily\":\"Roboto\"},\"tvWeatherDescription\":{\"fontSize\":\"20px\",\"fontWeight\":\"normal\",\"justifyContent\":\"center\",\"color\":\"rgba(255,255,255,1)\",\"fontStyle\":\"normal\",\"textDecoration\":\"unset\",\"fontFamily\":\"Roboto\"},\"tvLocation\":{\"fontSize\":\"16px\",\"fontWeight\":\"bold\",\"justifyContent\":\"center\",\"color\":\"rgba(255,255,255,1)\",\"fontStyle\":\"normal\",\"textDecoration\":\"unset\",\"fontFamily\":\"Roboto\"},\"tvHumidity\":{\"fontSize\":\"13px\",\"fontWeight\":\"normal\",\"justifyContent\":\"space-between\",\"color\":\"rgba(255,255,255,1)\",\"fontStyle\":\"normal\",\"textDecoration\":\"unset\",\"fontFamily\":\"Roboto\"},\"tvWind\":{\"fontSize\":\"13px\",\"fontWeight\":\"normal\",\"justifyContent\":\"space-between\",\"color\":\"rgba(255,255,255,1)\",\"fontStyle\":\"normal\",\"textDecoration\":\"unset\",\"fontFamily\":\"Roboto\"},\"tvSunrise\":{\"fontSize\":\"13px\",\"fontWeight\":\"normal\",\"justifyContent\":\"space-between\",\"color\":\"rgba(255,255,255,1)\",\"fontStyle\":\"normal\",\"textDecoration\":\"unset\",\"fontFamily\":\"Roboto\"},\"tvSunset\":{\"fontSize\":\"13px\",\"fontWeight\":\"normal\",\"justifyContent\":\"space-between\",\"color\":\"rgba(255,255,255,1)\",\"fontStyle\":\"normal\",\"textDecoration\":\"unset\",\"fontFamily\":\"Roboto\"},\"day_clear_sky\":{\"type\":\"HOSTED\",\"name\":\"Clear sky\",\"url\":\"https://s3.amazonaws.com/userstyles-org/android/defaults/widgets/weather/day/clear_sky.png\"},\"day_few_clouds\":{\"type\":\"HOSTED\",\"name\":\"Few clouds\",\"url\":\"https://s3.amazonaws.com/userstyles-org/android/defaults/widgets/weather/day/few_clouds.png\"},\"day_broken_clouds\":{\"type\":\"HOSTED\",\"name\":\"Broken clouds\",\"url\":\"https://s3.amazonaws.com/userstyles-org/android/defaults/widgets/weather/day/broken_clouds.png\"},\"day_shower_rain\":{\"type\":\"HOSTED\",\"name\":\"Shower rain\",\"url\":\"https://s3.amazonaws.com/userstyles-org/android/defaults/widgets/weather/day/shower_rain.png\"},\"day_rain\":{\"type\":\"HOSTED\",\"name\":\"Rain\",\"url\":\"https://s3.amazonaws.com/userstyles-org/android/defaults/widgets/weather/day/rain.png\"},\"day_thunderstorm\":{\"type\":\"HOSTED\",\"name\":\"Thunderstorm\",\"url\":\"https://s3.amazonaws.com/userstyles-org/android/defaults/widgets/weather/day/thunderstorms.png\"},\"day_scattered_clouds\":{\"type\":\"HOSTED\",\"name\":\"Scattered clouds\",\"url\":\"https://s3.amazonaws.com/userstyles-org/android/defaults/widgets/weather/day/scattered_clouds.png\"},\"day_mist\":{\"type\":\"HOSTED\",\"name\":\"Mist\",\"url\":\"https://s3.amazonaws.com/userstyles-org/android/defaults/widgets/weather/day/mist.png\"},\"day_snow\":{\"name\":\"Snow\",\"url\":\"https://s3.amazonaws.com/userstyles-org/android/defaults/widgets/weather/day/snow.png\"},\"night_clear_sky\":{\"type\":\"HOSTED\",\"name\":\"Clear sky\",\"url\":\"https://s3.amazonaws.com/userstyles-org/android/defaults/widgets/weather/night/clear_sky.png\"},\"night_few_clouds\":{\"type\":\"HOSTED\",\"name\":\"Few clouds\",\"url\":\"https://s3.amazonaws.com/userstyles-org/android/defaults/widgets/weather/night/few_clouds.png\"},\"night_broken_clouds\":{\"type\":\"HOSTED\",\"name\":\"Broken clouds\",\"url\":\"https://s3.amazonaws.com/userstyles-org/android/defaults/widgets/weather/night/broken_clouds.png\"},\"night_shower_rain\":{\"type\":\"HOSTED\",\"name\":\"Shower rain\",\"url\":\"https://s3.amazonaws.com/userstyles-org/android/defaults/widgets/weather/night/shower_rain.png\"},\"night_rain\":{\"type\":\"HOSTED\",\"name\":\"Rain\",\"url\":\"https://s3.amazonaws.com/userstyles-org/android/defaults/widgets/weather/night/rain.png\"},\"night_thunderstorm\":{\"type\":\"HOSTED\",\"name\":\"Thunderstorm\",\"url\":\"https://s3.amazonaws.com/userstyles-org/android/defaults/widgets/weather/night/thunderstorms.png\"},\"night_scattered_clouds\":{\"type\":\"HOSTED\",\"name\":\"Scattered clouds\",\"url\":\"https://s3.amazonaws.com/userstyles-org/android/defaults/widgets/weather/night/scattered_clouds.png\"},\"night_mist\":{\"type\":\"HOSTED\",\"name\":\"Mist\",\"url\":\"https://s3.amazonaws.com/userstyles-org/android/defaults/widgets/weather/night/mist.png\"},\"night_snow\":{\"type\":\"HOSTED\",\"name\":\"Snow\",\"url\":\"https://s3.amazonaws.com/userstyles-org/android/defaults/widgets/weather/night/snow.png\"}}"},{"id":168111,"name":"Presearch dark mode","category":"site","raw_subcategory":"presearch","subcategory":"presearch","style_tags":[],"description":"Just take this dark mode for free.\r\nI dont know a lot of css :c","user":{"id":767719,"name":"borjagarciab","email":"redacted","paypal_email":"noodlebonitaxd@gmail.com","homepage":null,"about":"Im not a pro CSS editor but its okey.","license":"arr"},"admin_delete_reason_id":null,"updated":"2019-12-15T19:10:12.000Z","weekly_install_count":1,"total_install_count":30,"rating":null,"screenshot_url":"https://userstyles.org/style_screenshots/168111_after.png?r=1597651508","url":"/styles/168111/presearch-dark-mode","discussionsCount":0,"commentsCount":0,"css":"@-moz-document url-prefix(\"https://www.presearch.org\") {\r\n#main {\r\nbackground: #262626 !important;\r\nborder-color: #262626 !important;\r\ncolor: #9a9a9a !important;\r\n}\r\n\r\n#main-nav {\r\nbackground: #262626 !important;\r\nborder-color: #262626 !important;\r\ncolor: #9a9a9a !important;\r\n}\r\n\r\nfooter {\r\nbackground: #262626 !important;\r\nborder-color: #262626 !important;\r\ncolor: #9a9a9a !important;\r\n}\r\n\r\n#search {\r\nbackground: #344E29 !important;\r\nborder-color: #344E29 !important;\r\ncolor: #000000 !important;\r\n}    \r\n    \r\n#wrapper {\r\n  background: #262626 !important;\r\nborder-color: #262626 !important;\r\ncolor: #9a9a9a !important; \r\n}\r\n}"},{"id":178309,"name":"Brick hill wingdings theme","category":"site","raw_subcategory":"brick-hill","subcategory":"brick-hill","style_tags":[],"description":"Makes brick hill much harder to use","user":{"id":873565,"name":"idotman","email":"redacted","paypal_email":null,"homepage":null,"about":null,"license":null},"admin_delete_reason_id":null,"updated":"2019-12-15T18:38:26.000Z","weekly_install_count":0,"total_install_count":10,"rating":null,"screenshot_url":"https://userstyles.org/style_screenshots/178309_after.png?r=1597565053","url":"/styles/178309/brick-hill-wingdings-theme","discussionsCount":0,"commentsCount":0,"css":"@-moz-document url-prefix(\"https://www.brick-hill.com\") {\r\nbody {\r\n    font-family: 'Wingdings' , Verdana, sans-serif;\r\n    font-weight: 500;\r\n    color: #000;\r\n    background-color: #ededed;\r\n}\r\n}"},{"id":178306,"name":"Goal-difference removal","category":"site","raw_subcategory":"hattrick","subcategory":"hattrick","style_tags":[],"description":"Removes goal-difference column from league standings page","user":{"id":873609,"name":"tperic","email":"redacted","paypal_email":"thetoniperic@gmail.com","homepage":null,"about":null,"license":null},"admin_delete_reason_id":null,"updated":"2019-12-15T18:00:42.000Z","weekly_install_count":0,"total_install_count":1,"rating":null,"screenshot_url":"https://userstyles.org/style_screenshots/178306_after.jpeg?r=1577260874","url":"/styles/178306/goal-difference-removal","discussionsCount":0,"commentsCount":0,"css":"@-moz-document regexp(\"https://.*hattrick.org\\\\/([a-z\\\\-]+\\\\/)?World\\\\/Series\\\\/(default.aspx)?\\\\?.*\") {\r\ntable.series-table tr:not(:first-child) > *:nth-child(12), #ctl00_ctl00_CPContent_CPMain_repLeagueTable_ctl00_td4 {\r\n    display: none;\r\n}\r\n}"},{"id":178305,"name":"Pretty tabs","category":"site","raw_subcategory":"hattrick","subcategory":"hattrick","style_tags":[],"description":"Prettier clubs tab switcher for Hattrick.org","user":{"id":873609,"name":"tperic","email":"redacted","paypal_email":"thetoniperic@gmail.com","homepage":null,"about":null,"license":null},"admin_delete_reason_id":null,"updated":"2019-12-15T17:56:33.000Z","weekly_install_count":0,"total_install_count":7,"rating":null,"screenshot_url":"https://userstyles.org/style_screenshots/178305_after.jpeg?r=1596010169","url":"/styles/178305/pretty-tabs","discussionsCount":0,"commentsCount":0,"css":"@-moz-document domain(\"hattrick.org\") {\r\n.switchClubTabWrapper a:not(.switchClubTabActive) {\r\n    background-color: rgba(100, 100, 100, .9) !important;\r\n    color: rgba(255, 255, 255, .6) !important;\r\n    transition: .1s all;\r\n}\r\n\r\n.switchClubTabWrapper a:not(.switchClubTabActive) img {\r\n    opacity: 0.5;\r\n}\r\n\r\n.switchClubTabWrapper a:not(.switchClubTabActive):hover img {\r\n    opacity: 1;\r\n}\r\n\r\n.switchClubTabWrapper a:not(.switchClubTabActive):hover {\r\n    color: white !important;\r\n    background-color: rgba(166, 166, 166, .9) !important;\r\n}\r\n\r\n}"},{"id":178304,"name":"Cup indicator removal","category":"site","raw_subcategory":"hattrick","subcategory":"hattrick","style_tags":[],"description":"Remove cup indicator from league standings page","user":{"id":873609,"name":"tperic","email":"redacted","paypal_email":"thetoniperic@gmail.com","homepage":null,"about":null,"license":null},"admin_delete_reason_id":null,"updated":"2019-12-15T17:51:20.000Z","weekly_install_count":0,"total_install_count":1,"rating":null,"screenshot_url":"https://userstyles.org/style_screenshots/178304_after.jpeg?r=1577088086","url":"/styles/178304/cup-indicator-removal","discussionsCount":0,"commentsCount":0,"css":"@-moz-document regexp(\"https://.*hattrick.org\\\\/([a-z\\\\-]+\\\\/)?World\\\\/Series\\\\/(default.aspx)?\\\\?.*\") {\r\n.series-table tr:not(:first-child) td:nth-child(5), .series-table tr:first-child th:nth-child(4) {\r\n    display: none;\r\n}\r\n}"},{"id":178303,"name":"éclaté-bfc G@M3RZ 3D1T10N","category":"site","raw_subcategory":"eclat-bfc","subcategory":"eclat-bfc","style_tags":[],"description":"V3R510N G@M3RZ DU M31LL3UR 51T3 J4M415 C0NCU","user":{"id":747440,"name":"Electronium","email":"redacted","paypal_email":null,"homepage":null,"about":"I'm a french kid and \r\nI PLAY POKEMON GO EVERYDAAAY","license":"publicdomain"},"admin_delete_reason_id":null,"updated":"2019-12-15T17:49:43.000Z","weekly_install_count":0,"total_install_count":10,"rating":null,"screenshot_url":"https://userstyles.org/style_screenshots/178303_after.png?r=1590221041","url":"/styles/178303/clat-bfc-g-m3rz-3d1t10n","discussionsCount":0,"commentsCount":0,"css":"@-moz-document domain(\"eclat-bfc.fr\") {\r\nbody{color: #4ff;font-family:comic sans ms,sans-serif;font-size:.8125rem;font-size:0.8125rem;font-weight:500;line-height:1rem;}\r\na{color: #f00;text-decoration:none;cursor:pointer;}a:hover{color:#e00}a.disabled{cursor:not-allowed;color:#f00}\r\n.tabs__button,.tabs__link{display:inline-block;color:rgba(255,0,0,.8);padding-bottom:.8125rem;padding-left:.25rem;padding-right:.25rem;margin-left:.25rem;margin-right:.25rem}\r\n.tabs__button.active,.tabs__link.active{border-color:#f00;color:#f00}\r\n.menu{background-color:#f0f}.menu,.menu a{color:#ff0}\r\n.bar{background-color:#00f;}\r\nhtml{box-sizing:border-box;background-color:#ff0}\r\n.panel--outlined{background-color:#0f0;border:1px solid #9400D3}\r\n.header{background-color: #ff8c00;;left:0;position:fixed;right:0;top:0;z-index:6000}\r\n}"},{"id":178302,"name":"Flashtrick","category":"site","raw_subcategory":"hattrick","subcategory":"hattrick","style_tags":[],"description":"Flashscore.com-alike league standings for Hattrick.org\r\n\r\nPlease keep in mind that the \"Last 5\" form indicator has hardcoded values of \"P\" (for win), \"N\" (for draw) and \"I\" (for loss).\r\n\r\nThis is a technical CSS limitation, so if you wish to modify those feel free to edit them in the source code (they are located at the very top).","user":{"id":873609,"name":"tperic","email":"redacted","paypal_email":"thetoniperic@gmail.com","homepage":null,"about":null,"license":null},"admin_delete_reason_id":null,"updated":"2019-12-15T17:45:45.000Z","weekly_install_count":0,"total_install_count":18,"rating":null,"screenshot_url":"https://userstyles.org/style_screenshots/178302_after.jpeg?r=1592208477","url":"/styles/178302/flashtrick","discussionsCount":0,"commentsCount":0,"css":"@-moz-document regexp(\"https://.*hattrick.org\\\\/([a-z\\\\-]+\\\\/)?World\\\\/Series\\\\/(default.aspx)?\\\\?.*\") {\r\n.icon-check:before {\r\n    content: \"P\"    \r\n}\r\n\r\n.icon-close:before {\r\n    content: \"I\"    \r\n}\r\n\r\n.icon-minus:before {\r\n    content: \"N\"    \r\n}\r\n\r\n.recent-result {\r\n    border: none;\r\n    border-radius: 2px;\r\n    display: flex;\r\n    height: 18px;\r\n    width: 18px;\r\n    font-size: 11px;\r\n    font-weight: 400;\r\n}\r\n\r\n.recent-result-lost {\r\n    background-color: #eb3f30;\r\n}\r\n\r\n.recent-result-won {\r\n    background-color: #44ac45;\r\n}\r\n\r\n.recent-result-draw {\r\n    background-color: #ffb22f;\r\n}\r\n\r\na.recent-result > i {\r\n    font-family: Tahoma, \"Geneva CE\", \"Lucida Sans\", Arial, Helvetica, sans-serif !important;\r\n    font-weight: bold;\r\n    font-size: 11px;\r\n}\r\n\r\n.series-table {\r\n    color: #656565;\r\n}\r\n\r\n.series-table tr {\r\n    height: 28px;\r\n}\r\n\r\n.series-table tr:not(:first-child) {\r\n    border-bottom: 1px solid #e5e5e5;\r\n}\r\n\r\n.series-table tbody tr:not(:first-child) > td:nth-child(2), .series-table tbody tr:first-child > th:nth-child(2) {\r\n    display: none;\r\n}\r\n\r\n.series-table tbody tr:not(:first-child) > td:first-child {\r\n    padding: 4px 10px;\r\n    background-color: #f3f3f3;\r\n}\r\n\r\n.series-table tbody tr:nth-child(2) > td:first-child {\r\n    background-color: #004682;\r\n    color: white;\r\n}\r\n\r\n.series-table-team a {\r\n    text-decoration: none;\r\n    color: #656565;\r\n    font-size: 11px;\r\n}\r\n\r\n.series-table-logo {\r\n    padding: 5px 3px 5px 7px;\r\n}\r\n\r\n.series-table-team a:hover {\r\n    text-decoration: underline;\r\n}\r\n\r\n.series-table-team a[href=\"/Recruitment/\"] {\r\n    display: none;\r\n}\r\n\r\n.series-table-team a.shy {\r\n    text-decoration: line-through;\r\n}\r\n\r\n.series-table-points {\r\n    font-weight: normal;\r\n}\r\n\r\ntable.series-table th {\r\n    border-bottom: 1px solid #d5d5d5;\r\n    background-color: #e9e9e9;\r\n    font-weight: normal;\r\n    color: #656565;\r\n    vertical-align: middle;\r\n}\r\n\r\n#ctl00_ctl00_CPContent_CPMain_UpdatePanelLiveLeagueTable {\r\n    font-family: Tahoma, \"Geneva CE\", \"Lucida Sans\", Arial, Helvetica, sans-serif;\r\n}\r\n\r\n#ctl00_ctl00_CPContent_CPMain_UpdatePanelLiveLeagueTable > span:first-child {\r\n    color: #656565;\r\n}\r\n\r\n#ctl00_ctl00_CPContent_CPMain_UpdatePanelLiveLeagueTable > span.float_right {\r\n    padding: 4px;\r\n    margin: 4px 0;\r\n    display: flex;\r\n    float: none;\r\n    background-color: #085f00;\r\n}\r\n\r\n#ctl00_ctl00_CPContent_CPMain_UpdatePanelLiveLeagueTable > span.float_right a {\r\n    padding: 6px 8px;\r\n    text-decoration: none;\r\n    color: rgba(255, 255, 255, 0.7);\r\n}\r\n\r\n#ctl00_ctl00_CPContent_CPMain_UpdatePanelLiveLeagueTable > span.float_right a:hover {\r\n    background-color: #053600;\r\n}\r\n\r\n#ctl00_ctl00_CPContent_CPMain_UpdatePanelLiveLeagueTable > span.float_right a[disabled] {\r\n    color: white;\r\n    background-color: #053600;\r\n    font-weight: bold;\r\n}\r\n\r\n#ctl00_ctl00_CPContent_CPMain_UpdatePanelLiveLeagueTable > span.float_right a[disabled]:hover {\r\n    text-decoration: underline;\r\n}\r\n\r\n#ctl00_ctl00_CPContent_CPMain_UpdatePanelLiveLeagueTable br {\r\n    display: none;\r\n}\r\n}"},{"id":152576,"name":"Naruho.do","category":"site","raw_subcategory":"naruho","subcategory":"naruho","style_tags":[],"description":"Colores oscuros para naruho.do (en progreso).\r\nSolo cambia el feed, no he revisado el foro ni listas.","user":{"id":564201,"name":"Nicolás Parada","email":"redacted","paypal_email":null,"homepage":null,"about":null,"license":"publicdomain"},"admin_delete_reason_id":null,"updated":"2019-12-15T17:38:08.000Z","weekly_install_count":0,"total_install_count":24,"rating":null,"screenshot_url":"https://userstyles.org/style_screenshots/152576_after.jpeg?r=1596182857","url":"/styles/152576/naruho-do","discussionsCount":0,"commentsCount":0,"css":"@-moz-document domain(\"naruho.do\") {\r\n:root {\r\n\t--accent: teal;\r\n    --bg-root: black;\r\n    --bg-1: #101010;\r\n    --bg-2: #171717;\r\n    --fg: white;\r\n    --muted: rgba(255, 255, 255, .4);\r\n\t--muted-alt: rgba(0, 0, 0, .6);\r\n  \t--border: rgba(255, 255, 255, .05);\r\n\t\r\n    -ms-overflow-style: -ms-autohiding-scrollbar;\r\n    background-color: var(--bg-root);\r\n    color: var(--fg);\r\n}\r\n\r\nbody {\r\n\tcolor: inherit;\r\n}\r\n\r\n#header {\r\n    background-color: black;\r\n    border-bottom: 6px solid black;\r\n}\r\n\r\ndiv.forum-header,\r\n#wrap_content {\r\n\tbackground: var(--bg-root);\r\n}\r\n\r\n#fullnotification,\r\n.tfield, #accounts #import_list input[type=\"text\"] {\r\n\tbackground: var(--bg-1);\r\n\tborder-color: transparent;\r\n\tcolor: inherit;\r\n}\r\n\r\n#shareForm #typeshare {\r\n\tbackground: none;\r\n\tborder-color: transparent;\r\n}\r\n\r\n#shareForm #typeshare div {\r\n\tborder-top-color: transparent;\r\n}\r\n\r\n.comment_wrapper .add-comment, #long_feeds .comments, .box,\r\n.tfield, #accounts #import_list input[type=text],\r\n.comment_wrapper .add-comment textarea,\r\n.more-comments {\r\n    border-radius: .5rem;\r\n}\r\n\r\n.comment_wrapper .add-comment,\r\n#long_feeds .comments,\r\n.box {\r\n\tbackground-color: var(--bg-1);\r\n\tborder-color: transparent;\r\n}\r\n\r\n#long_feeds .message img.tail {\r\n\tdisplay: none;\r\n}\r\n\r\nspan.date {\r\n\tcolor: var(--muted);\r\n}\r\n\r\n.notificationsList span.date {\r\n\tcolor: var(--muted-alt);\r\n}\r\n\r\n.division_line {\r\n\tborder-color: var(--border);\r\n}\r\n\r\n.comment_wrapper .add-comment textarea {\r\n\tbackground-color: var(--bg-2);\r\n\tborder-color: transparent;\r\n\tcolor: inherit;\r\n}\r\n\r\n.more-comments {\r\n\tbackground-color: var(--bg-2);\r\n\tborder-bottom: none;\r\n}\r\n\r\n.comment_wrapper .comments li {\r\n\tbackground: none;\r\n}\r\n\r\n#long_feeds .comments li {\r\n\tborder-color: var(--border);\r\n}\r\n\r\n.discussion-post-author,\r\n.discussion {\r\n\tcolor: inherit;\r\n}\r\n\r\nblockquote,\r\n.tag-label,\r\n.discussion-stats {\r\n\tbackground-color: var(--bg-1);\r\n}\r\n\r\n.in-reply-to,\r\n.discussion-post {\r\n\tborder-color: var(--border);\r\n}\r\n\r\n.discussion-item-title {\r\n\tcolor: var(--accent);\r\n}\r\n\r\n#fullnotification .list {\r\n\tborder-color: var(--border);\r\n}\r\n\r\n#fullnotification .ua-notifications>a:hover {\r\n\tbackground-color: var(--bg-2);\r\n}\r\n\r\n#fullnotification div.detail p {\r\n\tcolor: var(--fg);\r\n}\r\n\r\n#long_feeds .message.box div.center {\r\n\theight: auto;\r\n}\r\n\r\n.fullimage {\r\n\twidth: 100%;\r\n\tmax-height: 75vh;\r\n\tobject-fit: contain;\r\n}\r\n}"}],"current_page":447,"per_page":12,"total_pages":8144,"total_entries":97722}